<?xml version="1.0" encoding="utf-8"?>
<!-- Generator: Adobe Illustrator 21.0.0, SVG Export Plug-In . SVG Version: 6.00 Build 0)  -->
<svg version="1.1" id="Camada_1" xmlns="http://www.w3.org/2000/svg" xmlns:xlink="http://www.w3.org/1999/xlink" x="0px" y="0px"
	 viewBox="0 0 213 213" style="enable-background:new 0 0 213 213;" xml:space="preserve">
<style type="text/css">
	.st0{fill:#A50112;}
</style>
<g>
	<g>
		<g>
			<path class="st0" d="M173.9,26H88.8c-7,0.4-12.4,6.3-12.1,13.3v109.3c0,0,0,0.1,0,0.1c0,0.3,0.1,0.6,0.2,0.9l0,0.1l0,0l6.3,14.5
				c0.8,1.9,2.6,3.1,4.6,3.1H90V178c0,0.9,0.2,1.8,0.5,2.7H58v-48c0-4.4-3.6-8-8-8V79.2c11.2-1.4,19.3-11.3,18.6-22.5
				c-0.7-11.2-10-20-21.3-20s-20.6,8.8-21.3,20c-0.7,11.2,7.4,21.1,18.6,22.5v45.5c-4.4,0-8,3.6-8,8v48h-8c-1.5,0-2.7,1.2-2.7,2.7
				c0,1.5,1.2,2.7,2.7,2.7h154.7c1.5,0,2.7-1.2,2.7-2.7c0-1.5-1.2-2.7-2.7-2.7h-11.2c0.3-0.9,0.5-1.8,0.5-2.7v-10.7h2.2
				c2,0,3.8-1.2,4.6-3.1l6.3-14.5l0,0c0,0,0,0,0-0.1c0.1-0.3,0.2-0.6,0.2-0.9c0,0,0-0.1,0-0.1V39.4C186.3,32.3,180.9,26.4,173.9,26z
				 M31.3,58c0-8.8,7.2-16,16-16s16,7.2,16,16s-7.2,16-16,16C38.5,74,31.4,66.9,31.3,58z M52.7,180.7H42v-48c0-1.5,1.2-2.7,2.7-2.7
				H50c1.5,0,2.7,1.2,2.7,2.7V180.7z M106,178c0,1.5-1.2,2.7-2.7,2.7H98c-1.5,0-2.7-1.2-2.7-2.7v-10.7H106V178z M110.9,180.7
				c0.3-0.9,0.5-1.8,0.5-2.7v-10.7h40V178c0,0.9,0.2,1.8,0.5,2.7H110.9z M167.3,178c0,1.5-1.2,2.7-2.7,2.7h-5.3
				c-1.5,0-2.7-1.2-2.7-2.7v-10.7h10.7V178L167.3,178z M174.6,162H88.1l-4.6-10.7h95.9L174.6,162z M119.3,146v-5.3
				c0-1.5,1.2-2.7,2.7-2.7h18.7c1.5,0,2.7,1.2,2.7,2.7v5.3H119.3z M180.7,39.4V146h-32v-5.3c0-4.4-3.6-8-8-8H122c-4.4,0-8,3.6-8,8
				v5.3H82V39.4c-0.3-4.1,2.7-7.6,6.8-8h85.1C178,31.7,181,35.3,180.7,39.4z"/>
			<path class="st0" d="M167.3,36.7h-72c-4.4,0-8,3.6-8,8v2.7c0,4.4,3.6,8,8,8h72c4.4,0,8-3.6,8-8v-2.7
				C175.3,40.3,171.8,36.7,167.3,36.7z M170,47.4c0,1.5-1.2,2.7-2.7,2.7h-72c-1.5,0-2.7-1.2-2.7-2.7v-2.7c0-1.5,1.2-2.7,2.7-2.7h72
				c1.5,0,2.7,1.2,2.7,2.7V47.4z"/>
			<path class="st0" d="M98,119.4c-5.9,0-10.7,4.8-10.7,10.7c0,5.9,4.8,10.7,10.7,10.7c5.9,0,10.7-4.8,10.7-10.7
				S103.9,119.4,98,119.4z M98,135.4c-2.9,0-5.3-2.4-5.3-5.3c0-2.9,2.4-5.3,5.3-5.3c2.9,0,5.3,2.4,5.3,5.3
				C103.3,133,101,135.4,98,135.4z"/>
			<path class="st0" d="M164.7,119.4c-5.9,0-10.7,4.8-10.7,10.7s4.8,10.7,10.7,10.7c5.9,0,10.7-4.8,10.7-10.7
				C175.3,124.1,170.6,119.4,164.7,119.4z M164.7,135.4c-2.9,0-5.3-2.4-5.3-5.3c0-2.9,2.4-5.3,5.3-5.3c2.9,0,5.3,2.4,5.3,5.3
				C170,133,167.6,135.4,164.7,135.4z"/>
			<path class="st0" d="M167.3,60.7h-72c-4.4,0-8,3.6-8,8V106c0,4.4,3.6,8,8,8h72c4.4,0,8-3.6,8-8V68.7
				C175.3,64.3,171.8,60.7,167.3,60.7z M170,106c0,1.5-1.2,2.7-2.7,2.7h-72c-1.5,0-2.7-1.2-2.7-2.7V68.7c0-1.5,1.2-2.7,2.7-2.7h72
				c1.5,0,2.7,1.2,2.7,2.7V106z"/>
		</g>
	</g>
</g>
</svg>
