<?xml version="1.0" encoding="utf-8"?>
<!-- Generator: Adobe Illustrator 21.0.0, SVG Export Plug-In . SVG Version: 6.00 Build 0)  -->
<svg version="1.1" id="Camada_1" xmlns="http://www.w3.org/2000/svg" xmlns:xlink="http://www.w3.org/1999/xlink" x="0px" y="0px"
	 viewBox="0 0 213 213" style="enable-background:new 0 0 213 213;" xml:space="preserve">
<style type="text/css">
	.st0{fill:#A50112;}
</style>
<g id="car_store">
	<path class="st0" d="M152.3,45.6h-7c-4.1-3.3-24.2-18.7-49-18.7s-44.9,15.3-49,18.7H35c-4.4,0-8,3.6-8,8v16c0,0.5,0.2,1,0.5,1.5
		l10.7,16c0.5,0.7,1.3,1.2,2.2,1.2h10.9c1.5,8.7,9.7,14.6,18.4,13.1c6.7-1.1,12-6.4,13.1-13.1h51.1c1.5,8.7,9.7,14.6,18.4,13.1
		c6.7-1.1,12-6.4,13.1-13.1h18.9c1.5,0,2.7-1.2,2.7-2.7v-5.3C187,61.1,171.5,45.6,152.3,45.6z M152.3,50.9c7.5,0,14.7,2.9,20.1,8
		h-13.7l-8-8H152.3z M32.3,53.6c0-1.5,1.2-2.7,2.7-2.7h6.7l-3.2,8h-6.2V53.6z M67,96.2c-5.9,0-10.7-4.8-10.7-10.7
		c0-5.9,4.8-10.7,10.7-10.7s10.7,4.8,10.7,10.7C77.7,91.4,72.9,96.2,67,96.2z M93.7,82.9H82.8c-1.5-8.7-9.7-14.6-18.4-13.1
		c-6.7,1.1-12,6.4-13.1,13.1h-9.5l-9.4-14.1v-4.5h8c1.1,0,2.1-0.7,2.5-1.7l4.7-11.7h46.2V82.9z M56.5,45.6
		c8.1-5.3,23-13.3,39.8-13.3s31.8,8,39.8,13.3H56.5z M109.7,50.9v2.7c0,1.5-1.2,2.7-2.7,2.7h-8v-5.3H109.7z M149.7,96.2
		c-5.9,0-10.7-4.8-10.7-10.7c0-5.9,4.8-10.7,10.7-10.7c5.9,0,10.7,4.8,10.7,10.7C160.3,91.4,155.6,96.2,149.7,96.2z M181.7,82.9
		h-16.2c-1.5-8.7-9.7-14.6-18.4-13.1c-6.7,1.1-12,6.4-13.1,13.1H99V61.6h8c4.4,0,8-3.6,8-8v-2.7h28.2l12.5,12.6
		c0.5,0.5,1.2,0.8,1.9,0.8h19.2c3.1,4.8,4.8,10.3,4.8,16V82.9z"/>
	<path class="st0" d="M176.3,150.3c0-5.1-4.1-9.2-9.2-9.2c-0.9,0-1.8,0.1-2.6,0.4l-4.3,1.3c0-0.1,0-0.3,0.1-0.4
		c0-5.1-4.1-9.2-9.2-9.2c-0.9,0-1.8,0.1-2.6,0.4l-12.2,3.6v-0.1c0-5.1-4.1-9.2-9.2-9.2c-0.9,0-1.8,0.1-2.6,0.4L99,135.6l-23.5-4.7
		c-0.2,0-0.4,0-0.5-0.1H59c-0.3,0-0.7,0.1-1,0.2l-9.7,3.9v-4.1c0-1.1-0.7-2.2-1.8-2.5l-16-5.3c-0.8-0.3-1.7-0.1-2.4,0.4
		c-0.7,0.5-1.1,1.3-1.1,2.2v58.7c0,0.9,0.4,1.7,1.1,2.2c0.4,0.3,1,0.5,1.5,0.5c0.3,0,0.6-0.1,0.9-0.1l16-5.3
		c1.1-0.4,1.8-1.4,1.8-2.5v-2.7h7.6l31.6,10.5c0.3,0.1,0.6,0.1,0.9,0.1h40c0.3,0,0.6-0.1,0.9-0.2l41-14.5c3.7-1.3,6.1-4.8,6.1-8.7
		c0-2.5-1.1-4.9-2.9-6.6C175.3,155.2,176.3,152.8,176.3,150.3z M43,177l-10.7,3.5v-51.3l10.7,3.5V177z M150.1,138.6
		c0.3-0.1,0.7-0.2,1.1-0.2c2.1,0,3.8,1.6,3.9,3.7c0,0.8-0.2,1.6-0.7,2.3l-31.3,7.1v-4.7c0-0.1-0.1-0.2-0.1-0.3L150.1,138.6z
		 M126.1,133.2c0.3-0.1,0.7-0.2,1.1-0.2c2.1,0,3.9,1.7,3.9,3.9c0,0.6-0.2,1.3-0.5,1.8l-11.2,3.3l-2.4-2.4c-0.4-0.4-0.8-0.6-1.4-0.7
		l-5.3-1.1L126.1,133.2z M168.4,167.2l-40.6,14.3H88.8L57.2,171c-0.3-0.1-0.6-0.1-0.9-0.1h-8v-30.2l11.2-4.5h15.2l39,7.8l4,4v4.2H83
		c-1.5,0-2.7,1.2-2.7,2.7c0,1,0.5,1.8,1.4,2.3l24,13.3c0.4,0.2,0.8,0.4,1.3,0.3h21.3c0.3,0,0.5,0,0.7-0.1l37-10.9
		c2-0.6,4.2,0.6,4.8,2.6C171.4,164.5,170.4,166.5,168.4,167.2L168.4,167.2z M168.5,153.9l-1.8,0.6c-0.7,0-1.5,0.1-2.2,0.3L128,165.6
		h-20.3l-13.2-7.3l1.9-0.7h24c0.2,0,0.4-0.1,0.6-0.1v0.1l35.7-8.2l9.4-2.8c0.3-0.1,0.7-0.2,1.1-0.2c2.1,0,3.9,1.7,3.9,3.9
		C171,151.9,170,153.3,168.5,153.9L168.5,153.9z"/>
	<path class="st0" d="M184.3,101.6H29.7c-1.5,0-2.7,1.2-2.7,2.7c0,7.4,6,13.3,13.3,13.3h133.3c7.4,0,13.3-6,13.3-13.3
		C187,102.7,185.8,101.6,184.3,101.6z M173.7,112.2H40.3c-3.4,0-6.4-2.1-7.5-5.3h148.4C180.1,110.1,177.1,112.2,173.7,112.2z"/>
</g>
</svg>
