<svg width="62" height="62" viewBox="0 0 62 62" fill="none" xmlns="http://www.w3.org/2000/svg">
<mask id="path-1-outside-1" maskUnits="userSpaceOnUse" x="0.371094" y="0.0500488" width="62" height="62" fill="black">
<rect fill="white" x="0.371094" y="0.0500488" width="62" height="62"/>
<path d="M60.3752 28.5704C56.6133 26.6987 53.1331 24.3075 50.0369 21.467C51.6274 15.453 52.8074 9.33782 53.5688 3.16382C53.7474 1.72552 52.9465 1.26137 52.6978 1.1536C51.997 0.886793 51.2051 1.14941 50.8026 1.78215C45.3364 8.32232 37.8492 7.5761 29.922 6.78164C21.9329 5.98259 13.6906 5.17194 7.58 12.1866C6.72549 11.12 5.31734 10.6656 4.00053 11.0315L3.86299 11.0701C2.05101 11.579 0.992603 13.4583 1.49669 15.2716L13.6912 58.9091C14.0449 60.1721 15.1946 61.0465 16.5062 61.05C16.7737 61.0497 17.0398 61.0129 17.2973 60.9409L18.3643 60.6428H18.3653C19.113 60.4339 19.7471 59.9365 20.128 59.26C20.5088 58.5835 20.6053 57.7834 20.3961 57.0358L16.6194 43.5191C22.1195 36.4468 29.7838 37.1957 37.893 38.0056C45.9929 38.8147 54.3599 39.6497 60.5063 32.2995L60.5092 32.2956C61.1129 31.543 61.3615 30.5661 61.191 29.6165C61.1011 29.1578 60.7982 28.7694 60.3752 28.5704ZM18.3868 58.2798C18.2668 58.4953 18.0653 58.6537 17.8275 58.7193L16.7603 59.0173C16.266 59.1547 15.7537 58.8661 15.6152 58.372L3.42012 14.7341C3.21196 13.9826 3.65074 13.2043 4.40146 12.9934L4.538 12.9553C4.66151 12.9206 4.78923 12.903 4.91755 12.9031C5.55109 12.9041 6.10697 13.3255 6.27904 13.9353L6.38721 14.3224V14.3245L12.6327 36.6736L18.4726 57.5727C18.5395 57.8104 18.5086 58.065 18.3868 58.2798ZM58.9717 31.0196C53.5046 37.5577 46.0163 36.8101 38.0921 36.0176C30.1981 35.2285 22.0511 34.4145 15.9631 41.1673L10.5065 21.6424L8.44467 14.2638C13.945 7.19275 21.6087 7.95935 29.724 8.76959C37.4297 9.53818 45.3842 10.3341 51.4356 4.06565C50.6898 9.75903 49.5781 15.3985 48.1076 20.949C47.9085 21.6666 48.1343 22.4351 48.6899 22.931C51.8647 25.8376 55.4186 28.301 59.2545 30.2539C59.2331 30.5304 59.1352 30.7955 58.9717 31.0196Z"/>
</mask>
<path d="M60.3752 28.5704C56.6133 26.6987 53.1331 24.3075 50.0369 21.467C51.6274 15.453 52.8074 9.33782 53.5688 3.16382C53.7474 1.72552 52.9465 1.26137 52.6978 1.1536C51.997 0.886793 51.2051 1.14941 50.8026 1.78215C45.3364 8.32232 37.8492 7.5761 29.922 6.78164C21.9329 5.98259 13.6906 5.17194 7.58 12.1866C6.72549 11.12 5.31734 10.6656 4.00053 11.0315L3.86299 11.0701C2.05101 11.579 0.992603 13.4583 1.49669 15.2716L13.6912 58.9091C14.0449 60.1721 15.1946 61.0465 16.5062 61.05C16.7737 61.0497 17.0398 61.0129 17.2973 60.9409L18.3643 60.6428H18.3653C19.113 60.4339 19.7471 59.9365 20.128 59.26C20.5088 58.5835 20.6053 57.7834 20.3961 57.0358L16.6194 43.5191C22.1195 36.4468 29.7838 37.1957 37.893 38.0056C45.9929 38.8147 54.3599 39.6497 60.5063 32.2995L60.5092 32.2956C61.1129 31.543 61.3615 30.5661 61.191 29.6165C61.1011 29.1578 60.7982 28.7694 60.3752 28.5704ZM18.3868 58.2798C18.2668 58.4953 18.0653 58.6537 17.8275 58.7193L16.7603 59.0173C16.266 59.1547 15.7537 58.8661 15.6152 58.372L3.42012 14.7341C3.21196 13.9826 3.65074 13.2043 4.40146 12.9934L4.538 12.9553C4.66151 12.9206 4.78923 12.903 4.91755 12.9031C5.55109 12.9041 6.10697 13.3255 6.27904 13.9353L6.38721 14.3224V14.3245L12.6327 36.6736L18.4726 57.5727C18.5395 57.8104 18.5086 58.065 18.3868 58.2798ZM58.9717 31.0196C53.5046 37.5577 46.0163 36.8101 38.0921 36.0176C30.1981 35.2285 22.0511 34.4145 15.9631 41.1673L10.5065 21.6424L8.44467 14.2638C13.945 7.19275 21.6087 7.95935 29.724 8.76959C37.4297 9.53818 45.3842 10.3341 51.4356 4.06565C50.6898 9.75903 49.5781 15.3985 48.1076 20.949C47.9085 21.6666 48.1343 22.4351 48.6899 22.931C51.8647 25.8376 55.4186 28.301 59.2545 30.2539C59.2331 30.5304 59.1352 30.7955 58.9717 31.0196Z" fill="#A50112"/>
<path d="M60.3752 28.5704C56.6133 26.6987 53.1331 24.3075 50.0369 21.467C51.6274 15.453 52.8074 9.33782 53.5688 3.16382C53.7474 1.72552 52.9465 1.26137 52.6978 1.1536C51.997 0.886793 51.2051 1.14941 50.8026 1.78215C45.3364 8.32232 37.8492 7.5761 29.922 6.78164C21.9329 5.98259 13.6906 5.17194 7.58 12.1866C6.72549 11.12 5.31734 10.6656 4.00053 11.0315L3.86299 11.0701C2.05101 11.579 0.992603 13.4583 1.49669 15.2716L13.6912 58.9091C14.0449 60.1721 15.1946 61.0465 16.5062 61.05C16.7737 61.0497 17.0398 61.0129 17.2973 60.9409L18.3643 60.6428H18.3653C19.113 60.4339 19.7471 59.9365 20.128 59.26C20.5088 58.5835 20.6053 57.7834 20.3961 57.0358L16.6194 43.5191C22.1195 36.4468 29.7838 37.1957 37.893 38.0056C45.9929 38.8147 54.3599 39.6497 60.5063 32.2995L60.5092 32.2956C61.1129 31.543 61.3615 30.5661 61.191 29.6165C61.1011 29.1578 60.7982 28.7694 60.3752 28.5704ZM18.3868 58.2798C18.2668 58.4953 18.0653 58.6537 17.8275 58.7193L16.7603 59.0173C16.266 59.1547 15.7537 58.8661 15.6152 58.372L3.42012 14.7341C3.21196 13.9826 3.65074 13.2043 4.40146 12.9934L4.538 12.9553C4.66151 12.9206 4.78923 12.903 4.91755 12.9031C5.55109 12.9041 6.10697 13.3255 6.27904 13.9353L6.38721 14.3224V14.3245L12.6327 36.6736L18.4726 57.5727C18.5395 57.8104 18.5086 58.065 18.3868 58.2798ZM58.9717 31.0196C53.5046 37.5577 46.0163 36.8101 38.0921 36.0176C30.1981 35.2285 22.0511 34.4145 15.9631 41.1673L10.5065 21.6424L8.44467 14.2638C13.945 7.19275 21.6087 7.95935 29.724 8.76959C37.4297 9.53818 45.3842 10.3341 51.4356 4.06565C50.6898 9.75903 49.5781 15.3985 48.1076 20.949C47.9085 21.6666 48.1343 22.4351 48.6899 22.931C51.8647 25.8376 55.4186 28.301 59.2545 30.2539C59.2331 30.5304 59.1352 30.7955 58.9717 31.0196Z" stroke="#A50112" stroke-width="1.4" mask="url(#path-1-outside-1)"/>
</svg>
