<?xml version="1.0" encoding="utf-8"?>
<!-- Generator: Adobe Illustrator 21.0.0, SVG Export Plug-In . SVG Version: 6.00 Build 0)  -->
<svg version="1.1" id="Camada_1" xmlns="http://www.w3.org/2000/svg" xmlns:xlink="http://www.w3.org/1999/xlink" x="0px" y="0px"
	 viewBox="0 0 213 213" style="enable-background:new 0 0 213 213;" xml:space="preserve">
<style type="text/css">
	.st0{fill:#A50112;}
</style>
<g id="Outline">
	<path class="st0" d="M170,113.1l-21.3-3v-4.9c4.6-3.3,7.9-8.2,9.3-13.6c0.7-2.8,1.1-5.6,1.3-8.5h0.1c5.9,0,10.7-4.8,10.7-10.7
		c0-4.8-3.2-9-7.8-10.3c0.5-2,0.5-4.2-0.2-6.2V45.7c0-10.3-8.4-18.7-18.7-18.7H122c-10.3,0-18.7,8.4-18.7,18.7v10.2
		c-0.7,2-0.8,4.2-0.2,6.2c-5.7,1.6-9,7.5-7.4,13.2C97,79.8,101.2,83,106,83h0.1c0.2,2.9,0.6,5.7,1.3,8.5c1.4,5.5,4.7,10.4,9.3,13.7
		v5L90,115.9c-3.9,0.9-7.6,2.7-10.7,5.3v-3.6c0-2.3-1-4.4-2.7-6v-10c0-1.5-1.2-2.7-2.7-2.7h-5.3v-5.7c0-2.6-2-4.9-4.6-5.3l-32.8-4.7
		V69.7h5.3v8c0,1.5,1.2,2.7,2.7,2.7h29.8c1.5,4.2,6,6.3,10.2,4.9v3.1c0,4.4,3.6,8,8,8c4.4,0,8-3.6,8-8v-32c0-1.5-1.2-2.7-2.7-2.7
		H39.3c-1.5,0-2.7,1.2-2.7,2.7v8h-5.3c-2.9,0-5.3,2.4-5.3,5.3v13.7c0,2.6,2,4.9,4.6,5.3l32.8,4.7V99H58c-1.5,0-2.7,1.2-2.7,2.7v8
		c-4.4,0-8,3.6-8,8v54.9c0,7.7,6,14.1,13.7,14.4c0.2,0,0.5,0,0.7,0c4.2,0,8.1-1.8,10.9-4.9c0,0,0.1-0.1,0.1-0.1l20.2-26.5l6.4-8.4
		h1.3v40h5.3v-40h53.3v40h5.3v-32h16v32h5.3v-55.5C185.9,122.3,179.1,114.4,170,113.1z M42,59h48v29.3c0,1.5-1.2,2.7-2.7,2.7
		c-1.5,0-2.7-1.2-2.7-2.7V77.7c0-1.5-1.2-2.7-2.7-2.7s-2.7,1.2-2.7,2.7c0,1.5-1.2,2.7-2.7,2.7c-1.5,0-2.7-1.2-2.7-2.7V64.3h-5.3V75
		H42V59z M130.7,109.7h4c3,0,5.9-0.5,8.7-1.6v4.3c0,5.9-4.8,10.7-10.7,10.7c-5.9,0-10.7-4.8-10.7-10.7V108
		C124.8,109.1,127.7,109.7,130.7,109.7z M132.7,128.3c5.4,0,10.4-2.7,13.3-7.2v20.5h-26.7v-20.5
		C122.3,125.6,127.3,128.3,132.7,128.3z M143.6,63.5c-7.3-1.2-14.7-1.2-21.9,0l-7.3,1.2c-3,0.5-5.7-1.5-6.2-4.5
		c-0.1-0.4-0.1-0.8-0.1-1.2h49.1c0.2,3-2.1,5.6-5.1,5.7c-0.4,0-0.8,0-1.2-0.1L143.6,63.5z M164.7,72.3c0,2.9-2.4,5.3-5.3,5.3V67
		c0,0,0,0,0,0C162.3,67,164.7,69.4,164.7,72.3z M108.7,45.7c0-7.4,6-13.3,13.3-13.3h21.3c7.4,0,13.3,6,13.3,13.3v8h-48V45.7z
		 M102.2,76.1c-2.1-2.1-2.1-5.5,0-7.5c1-1,2.3-1.6,3.8-1.6l0,0v10.6C104.6,77.7,103.2,77.1,102.2,76.1z M112.6,90.2
		c-0.8-3.2-1.2-6.5-1.2-9.8V69.9c2.1,0.8,5.6-0.2,5.6-0.2c-0.7,2.1,0.3,4.4,2.4,5.1c2.1,0.7,4.4-0.3,5.1-2.4
		c0.5-1.3,0.2-2.7-0.6-3.8c5.9-0.9,11.8-0.9,17.7,0c-1.4,1.7-1.1,4.2,0.6,5.6c1.7,1.4,4.2,1.1,5.6-0.6c0.9-1.1,1.1-2.5,0.6-3.8
		c1.9,0.3,3.7,0.6,5.5,0.2c0.2,3.5,0,7,0,10.5c0,3.3-0.4,6.6-1.2,9.9c-2.1,8.1-9.6,14.1-18.1,14.1h-4
		C122.1,104.3,114.6,98.5,112.6,90.2L112.6,90.2z M60.7,141.7h10.7v5.3H60.7V141.7z M60.7,104.3h10.7v5.3H60.7V104.3z M52.7,117.7
		c0-1.5,1.2-2.7,2.7-2.7h16c1.5,0,2.7,1.2,2.7,2.7v16c0,1.5-1.2,2.7-2.7,2.7h-16c-1.5,0-2.7-1.2-2.7-2.7V117.7z M52.7,172.6v-31.4
		c0.9,0.3,1.8,0.5,2.7,0.5v8c0,1.5,1.2,2.7,2.7,2.7h10.7v21.3c0,4.2-3.3,7.7-7.5,8c-2.2-0.1-4.3-1.1-5.9-2.6
		C53.6,177.3,52.7,175,52.7,172.6z M74,171.5v-19.1c1.5,0,2.7-1.2,2.7-2.7v-5.3l10.6,9.7L74,171.5z M98,141.7
		c-0.8,0-1.6,0.4-2.1,1.1l-5.4,7.1l-12.6-11.5c1-1.3,1.5-3,1.5-4.6v-4.4l0.1-0.1c2.7-4.1,6.9-7,11.7-8l9.6-2v22.6H98z M106,141.7
		v-23.7l8-1.7v25.5H106z M151.3,141.7v-25.9l8,1.1v24.7H151.3z M180.7,149.7h-16v-32l4.5,0.6c6.5,1,11.4,6.6,11.5,13.2V149.7z"/>
	<rect x="111.3" y="152.3" class="st0" width="5.3" height="5.3"/>
	<rect x="148.7" y="152.3" class="st0" width="5.3" height="5.3"/>
	<path class="st0" d="M111.3,184.3c0,1.5,1.2,2.7,2.7,2.7h37.3c1.5,0,2.7-1.2,2.7-2.7v-18.7c0-1.5-1.2-2.7-2.7-2.7H114
		c-1.5,0-2.7,1.2-2.7,2.7V184.3z M116.7,168.3h32v13.3h-32V168.3z"/>
	<path class="st0" d="M142,85.3l-2.7-4.6c-2.7,1.5-5.8,2.3-8.9,2.3h-3.1v5.3h3.1C134.5,88.4,138.5,87.3,142,85.3z"/>
</g>
</svg>
