<?xml version="1.0" encoding="utf-8"?>
<!-- Generator: Adobe Illustrator 21.0.0, SVG Export Plug-In . SVG Version: 6.00 Build 0)  -->
<svg version="1.1" id="Camada_1" xmlns="http://www.w3.org/2000/svg" xmlns:xlink="http://www.w3.org/1999/xlink" x="0px" y="0px"
	 viewBox="0 0 213 213" style="enable-background:new 0 0 213 213;" xml:space="preserve">
<style type="text/css">
	.st0{fill:#A50112;}
</style>
<g>
	<g>
		<path class="st0" d="M191.9,95.1l-9.6-0.9c-1.1-3.9-2.7-7.6-4.7-11.1l6.1-7.4c1.5-1.8,1.4-4.4-0.3-6.1l-12-12.2
			c-1.6-1.7-4.3-1.8-6.1-0.3l-7.4,6.1c-3.5-2-7.2-3.6-11.1-4.7l-0.9-9.6c-0.2-2.3-2.2-4.1-4.5-4.1h-15V31.4c0-2.5-2-4.5-4.5-4.5
			c-2.5,0-4.5,2-4.5,4.5V54h-17.1c-7.3,0-14.2,3.4-18.6,9.2L63.1,87.7l-31.3,8.5c-8.1,2.2-13.7,9.6-13.8,18v12
			c0,10.3,8.4,18.6,18.7,18.6h2.4c3.4,12.6,16.4,20,29,16.6c8.1-2.2,14.5-8.5,16.6-16.6h32.6v37.5c0,2.5,2,4.5,4.5,4.5
			c2.5,0,4.5-2,4.5-4.5v-10.8h15c2.3,0,4.3-1.8,4.5-4.1l0.9-9.6c3.9-1.1,7.6-2.7,11.1-4.7l7.4,6.1c1.8,1.5,4.4,1.4,6.1-0.3
			l12.2-12.2c1.6-1.6,1.8-4.3,0.3-6.1l-6.1-7.4c2-3.5,3.6-7.2,4.7-11.1l9.5-0.9c2.3-0.2,4.1-2.2,4.1-4.5V99.6
			C196,97.3,194.2,95.3,191.9,95.1z M62,153.3c-8,0-14.6-6.5-14.6-14.6s6.5-14.6,14.6-14.6s14.6,6.5,14.6,14.6S70,153.3,62,153.3z
			 M117.4,135.8h-32c-1.6-13-13.4-22.1-26.3-20.6c-10.8,1.3-19.2,9.8-20.6,20.6h-1.8c-5.3,0-9.7-4.2-9.7-9.6v-11.9
			c0-4.3,2.9-8.1,7.1-9.3L66.9,96c0.9-0.3,1.8-0.8,2.4-1.6l19.6-25.7c2.7-3.6,7-5.6,11.4-5.6h17V135.8z M126.4,89
			c10.6-3.5,22,2.2,25.5,12.8c3.5,10.6-2.2,22-12.8,25.5c-4.1,1.4-8.6,1.4-12.7,0V89z M187,112.7L187,112.7l-8.6,0.8
			c-1.9,0.2-3.6,1.6-4,3.5c-1.1,5.1-3.2,9.8-6,14.2c-1.1,1.7-0.9,3.8,0.3,5.3l5.5,6.7l-6.3,6.3l-6.7-5.5c-1.5-1.3-3.7-1.4-5.4-0.3
			c-4.3,2.8-9.1,4.9-14.1,6c-1.9,0.4-3.3,2-3.5,4l-0.8,8.7h-10.9v-25.7c15.8,3.5,31.4-6.4,34.9-22.2c3.5-15.8-6.4-31.4-22.2-34.9
			c-4.2-0.9-8.5-0.9-12.7,0V54h10.9l0.9,8.6c0.2,1.9,1.6,3.6,3.5,4c5.1,1.1,9.8,3.2,14.2,6c1.7,1.1,3.8,0.9,5.3-0.3l6.6-5.5l6.2,6.3
			l-5.6,6.7c-1.3,1.5-1.4,3.7-0.3,5.4c2.8,4.3,4.9,9.1,6,14.1c0.5,1.9,2,3.3,4,3.5l8.7,0.9V112.7z"/>
	</g>
</g>
</svg>
