<?xml version="1.0" encoding="utf-8"?>
<!-- Generator: Adobe Illustrator 21.0.0, SVG Export Plug-In . SVG Version: 6.00 Build 0)  -->
<svg version="1.1" id="Camada_1" xmlns="http://www.w3.org/2000/svg" xmlns:xlink="http://www.w3.org/1999/xlink" x="0px" y="0px"
	 viewBox="0 0 213 213" style="enable-background:new 0 0 213 213;" xml:space="preserve">
<style type="text/css">
	.st0{fill:#A50112;}
</style>
<g>
	<path class="st0" d="M183.3,75.9h7.7v-5.2h-6l-12.1-29.5c-3.6-8.7-12-14.4-21.5-14.4h-42c-7.9,0-15.2,4-19.5,10.6L68.1,71.1
		L32.9,81.2c-1.1,0.3-1.9,1.3-1.9,2.5v33.5c0,1.4,1.2,2.6,2.6,2.6h13.1c1.3,11.6,11.1,20.6,23.1,20.6s21.8-9.1,23.1-20.6h8.2
		l1.4,2.1c3.9,5.9,6,12.8,6,19.8c0,7.1-2.1,13.9-6,19.8l-1.9,2.8c-1.6,2.4-2.4,5.2-2.4,8c0,8,6.5,14.5,14.5,14.5
		c2.9,0,5.6-0.8,8-2.4l1.8-1.2c2.9-1.9,6-3.4,9.3-4.6v8.2h5.2v-10.3c0-0.9-0.4-1.7-1.1-2.1l-14.3-9.6v-8.9c0-1.4,1.2-2.6,2.6-2.6
		c1.4,0,2.6,1.2,2.6,2.6v7.7h5.2v-7.7v-25.8c0-1.4,1.2-2.6,2.6-2.6c1.4,0,2.6,1.2,2.6,2.6v5.2v12.9h5.2v-12.9v-5.2V125
		c0-1.4,1.2-2.6,2.6-2.6s2.6,1.2,2.6,2.6v5.2v5.2v12.9h5.2v-12.9v-5.2c0-1.4,1.2-2.6,2.6-2.6c1.4,0,2.6,1.2,2.6,2.6v10.3v7.7h5.2
		v-7.7c0-1.4,1.2-2.6,2.6-2.6c1.4,0,2.6,1.2,2.6,2.6v27.3l-4.4,4.4c-0.5,0.5-0.8,1.1-0.8,1.8v12.9h5.2V184l0.7,0.5
		c2.4,1.6,5.2,2.4,8,2.4c8,0,14.5-6.5,14.5-14.5c0-2.9-0.8-5.6-2.4-8l-1.9-2.8c-3.9-5.9-6-12.8-6-19.8c0-7.1,2.1-13.9,6-19.8
		l1.9-2.8c1.6-2.4,2.4-5.2,2.4-8c0-8-6.5-14.5-14.5-14.5c-2.9,0-5.6,0.8-8,2.4l-1.8,1.2c-6.6,4.4-14.3,6.7-22.2,6.7
		c-7.9,0-15.6-2.3-22.2-6.7l-1.8-1.2c-2.4-1.6-5.2-2.4-8-2.4c-8,0-14.5,6.5-14.5,14.5c0,1.2,0.2,2.4,0.5,3.6h-5.8
		C91.5,103,81.6,94,69.7,94s-21.8,9.1-23.1,20.6H36.2V99.1h7.7c1.4,0,2.6-1.2,2.6-2.6V82.7l23.9-6.8c0.6-0.2,1.1-0.6,1.5-1.1
		l22.3-34.4c3.3-5.2,9-8.3,15.2-8.3h42c7.3,0,13.9,4.4,16.7,11.2l12.8,31.1C181.3,75.3,182.2,75.9,183.3,75.9L183.3,75.9z
		 M112.6,101.7c1.8,0,3.6,0.5,5.2,1.6l1.8,1.2c7.5,5,16.1,7.6,25.1,7.6c9,0,17.6-2.6,25.1-7.6l1.8-1.2c1.5-1,3.3-1.6,5.2-1.6
		c5.1,0,9.3,4.2,9.3,9.3c0,1.8-0.5,3.6-1.6,5.2l-1.9,2.8c-4.5,6.7-6.9,14.6-6.9,22.7c0,8.1,2.4,16,6.9,22.7l1.9,2.8
		c1,1.5,1.6,3.3,1.6,5.2c0,5.1-4.2,9.3-9.3,9.3c-1.8,0-3.6-0.5-5.2-1.6l-1.8-1.2c-0.6-0.4-1.2-0.8-1.8-1.1v-2.8l4.4-4.4
		c0.5-0.5,0.8-1.1,0.8-1.8v-28.4c0-4.3-3.5-7.7-7.7-7.7c-0.9,0-1.8,0.2-2.6,0.5v-3.1c0-4.3-3.5-7.7-7.7-7.7c-1,0-2,0.2-2.9,0.6
		c-0.9-3.3-3.9-5.7-7.4-5.7s-6.5,2.4-7.4,5.7c-0.9-0.4-1.9-0.6-2.9-0.6c-4.3,0-7.7,3.5-7.7,7.7v18.5c-0.8-0.3-1.7-0.5-2.6-0.5
		c-4.3,0-7.7,3.5-7.7,7.7v10.3c0,0.9,0.4,1.7,1.1,2.1l9.8,6.5c-2.7,1.1-5.2,2.5-7.6,4.1l-1.8,1.2c-1.5,1-3.3,1.6-5.2,1.6
		c-5.1,0-9.3-4.2-9.3-9.3c0-1.8,0.5-3.6,1.6-5.2l1.9-2.8c4.5-6.7,6.9-14.6,6.9-22.7s-2.4-16-6.9-22.7l-1.9-2.8
		c-1-1.5-1.6-3.3-1.6-5.2C103.3,105.9,107.4,101.7,112.6,101.7L112.6,101.7z M69.7,99.1c10,0,18.1,8.1,18.1,18.1
		s-8.1,18.1-18.1,18.1s-18.1-8.1-18.1-18.1S59.8,99.1,69.7,99.1z M41.3,94h-5.2v-8.4l5.2-1.5V94z"/>
	<path class="st0" d="M69.7,130.1c7.1,0,12.9-5.8,12.9-12.9s-5.8-12.9-12.9-12.9c-7.1,0-12.9,5.8-12.9,12.9S62.6,130.1,69.7,130.1z
		 M69.7,109.5c4.3,0,7.7,3.5,7.7,7.7S74,125,69.7,125c-4.3,0-7.7-3.5-7.7-7.7S65.4,109.5,69.7,109.5z"/>
	<path class="st0" d="M172.5,74.8c0.5-0.7,0.6-1.6,0.3-2.4l-10.4-26.9c-1.9-4.9-6.7-8.3-12-8.3h-38.8c-4.5,0-8.6,2.3-11,6.1L83,72
		c-0.5,0.8-0.5,1.8-0.1,2.6c0.5,0.8,1.3,1.3,2.3,1.3h85.2C171.2,75.9,172,75.5,172.5,74.8z M105,46.1c1.4-2.3,3.9-3.7,6.6-3.7h14.9
		v28.4H89.8L105,46.1z M131.6,70.8V42.4h18.7c3.2,0,6.1,2,7.2,5l9,23.4H131.6z"/>
	<path class="st0" d="M121.3,81.1h10.3v5.2h-10.3V81.1z"/>
	<path class="st0" d="M162.6,81.1h10.3v5.2h-10.3V81.1z"/>
	<path class="st0" d="M90.4,168.8c-5.7,0-10.3-4.6-10.3-10.3c0-1.4-1.2-2.6-2.6-2.6c-1.4,0-2.6,1.2-2.6,2.6
		c0,5.7-4.6,10.3-10.3,10.3c-1.4,0-2.6,1.2-2.6,2.6s1.2,2.6,2.6,2.6c5.7,0,10.3,4.6,10.3,10.3c0,1.4,1.2,2.6,2.6,2.6
		c1.4,0,2.6-1.2,2.6-2.6c0-5.7,4.6-10.3,10.3-10.3c1.4,0,2.6-1.2,2.6-2.6S91.8,168.8,90.4,168.8z M77.5,175.8
		c-1.1-1.7-2.6-3.2-4.4-4.4c1.7-1.1,3.2-2.6,4.4-4.4c1.1,1.7,2.6,3.2,4.4,4.4C80.1,172.5,78.6,174,77.5,175.8z"/>
	<path class="st0" d="M59.4,150.8c-5.7,0-10.3-4.6-10.3-10.3c0-1.4-1.2-2.6-2.6-2.6s-2.6,1.2-2.6,2.6c0,5.7-4.6,10.3-10.3,10.3
		c-1.4,0-2.6,1.2-2.6,2.6s1.2,2.6,2.6,2.6c5.7,0,10.3,4.6,10.3,10.3c0,1.4,1.2,2.6,2.6,2.6s2.6-1.2,2.6-2.6
		c0-5.7,4.6-10.3,10.3-10.3c1.4,0,2.6-1.2,2.6-2.6S60.8,150.8,59.4,150.8z M46.5,157.7c-1.1-1.7-2.6-3.2-4.4-4.4
		c1.7-1.1,3.2-2.6,4.4-4.4c1.1,1.7,2.6,3.2,4.4,4.4C49.1,154.5,47.6,156,46.5,157.7z"/>
	<path class="st0" d="M33.6,45c5.7,0,10.3,4.6,10.3,10.3c0,1.4,1.2,2.6,2.6,2.6s2.6-1.2,2.6-2.6c0-5.7,4.6-10.3,10.3-10.3
		c1.4,0,2.6-1.2,2.6-2.6c0-1.4-1.2-2.6-2.6-2.6c-5.7,0-10.3-4.6-10.3-10.3c0-1.4-1.2-2.6-2.6-2.6s-2.6,1.2-2.6,2.6
		c0,5.7-4.6,10.3-10.3,10.3c-1.4,0-2.6,1.2-2.6,2.6C31,43.8,32.2,45,33.6,45z M46.5,38c1.1,1.7,2.6,3.2,4.4,4.4
		c-1.7,1.1-3.2,2.6-4.4,4.4c-1.1-1.7-2.6-3.2-4.4-4.4C43.9,41.2,45.3,39.7,46.5,38z"/>
</g>
</svg>
