<?xml version="1.0" encoding="utf-8"?>
<!-- Generator: Adobe Illustrator 21.0.0, SVG Export Plug-In . SVG Version: 6.00 Build 0)  -->
<svg version="1.1" id="Camada_1" xmlns="http://www.w3.org/2000/svg" xmlns:xlink="http://www.w3.org/1999/xlink" x="0px" y="0px"
	 viewBox="0 0 213 213" style="enable-background:new 0 0 213 213;" xml:space="preserve">
<style type="text/css">
	.st0{fill:#A50112;}
</style>
<g>
	<path class="st0" d="M105,27c-44.2,0-80,35.8-80,80s35.8,80,80,80s80-35.8,80-80C185,62.8,149.2,27,105,27z M105,181.7
		c-41.2,0-74.7-33.4-74.7-74.7S63.8,32.3,105,32.3s74.7,33.4,74.7,74.7C179.6,148.2,146.2,181.6,105,181.7z"/>
	<path class="st0" d="M105,40.3c-36.8,0-66.7,29.8-66.7,66.7s29.8,66.7,66.7,66.7s66.7-29.8,66.7-66.7
		C171.6,70.2,141.8,40.4,105,40.3z M150.3,109.7h15.9c-1.4,31.8-26.8,57.2-58.6,58.6v-23.9c0-1.5-1.2-2.7-2.7-2.7s-2.7,1.2-2.7,2.7
		v23.9c-31.8-1.4-57.2-26.8-58.6-58.6h15.9c1.5,0,2.7-1.2,2.7-2.7s-1.2-2.7-2.7-2.7H43.7c1.4-31.8,26.8-57.2,58.6-58.6v23.9
		c0,1.5,1.2,2.7,2.7,2.7s2.7-1.2,2.7-2.7V45.7c31.8,1.4,57.2,26.8,58.6,58.6h-15.9c-1.5,0-2.7,1.2-2.7,2.7S148.9,109.7,150.3,109.7z
		"/>
	<path class="st0" d="M139.7,69.7h-16c-1.5,0-2.7,1.2-2.7,2.7v24H89v-24c0-1.5-1.2-2.7-2.7-2.7h-16c-1.5,0-2.7,1.2-2.7,2.7v69.3
		c0,1.5,1.2,2.7,2.7,2.7h16c1.5,0,2.7-1.2,2.7-2.7v-24h32v24c0,1.5,1.2,2.7,2.7,2.7h16c1.5,0,2.7-1.2,2.7-2.7V72.3
		C142.3,70.9,141.1,69.7,139.7,69.7z M137,139h-10.7v-24c0-1.5-1.2-2.7-2.7-2.7H86.3c-1.5,0-2.7,1.2-2.7,2.7v24H73V75h10.7v24
		c0,1.5,1.2,2.7,2.7,2.7h37.3c1.5,0,2.7-1.2,2.7-2.7V75H137V139z"/>
	<path class="st0" d="M105,85.7c1.5,0,2.7-1.2,2.7-2.7v-2.7c0-1.5-1.2-2.7-2.7-2.7s-2.7,1.2-2.7,2.7V83
		C102.3,84.5,103.5,85.7,105,85.7z"/>
</g>
</svg>
