<?xml version="1.0" encoding="utf-8"?>
<!-- Generator: Adobe Illustrator 21.0.0, SVG Export Plug-In . SVG Version: 6.00 Build 0)  -->
<svg version="1.1" id="Camada_1" xmlns="http://www.w3.org/2000/svg" xmlns:xlink="http://www.w3.org/1999/xlink" x="0px" y="0px"
	 viewBox="0 0 213 213" style="enable-background:new 0 0 213 213;" xml:space="preserve">
<style type="text/css">
	.st0{fill:#A50112;}
</style>
<g>
	<path class="st0" d="M186.2,187c3.2-0.1,3.2-4.7,0-4.8h-2v-41.4c0-1.3-1.1-2.4-2.4-2.4s-2.4,1.1-2.4,2.4v41.4h-28.8V82.5
		c0,0,0,0,0,0V72.3h28.8v58.5c0,1.3,1.1,2.4,2.4,2.4s2.4-1.1,2.4-2.4V70.5c4-11.8-4.5-24.8-16.8-26.1v-15c0-1.3-1.1-2.4-2.4-2.4
		c-1.3,0-2.4,1.1-2.4,2.4v15c-12.2,1.3-20.7,14.3-16.8,26.1v7.1l-35.7-28c-1.8-1.4-4.4-1.4-6.2,0L86.1,63.5c-1,0.8-1.2,2.3-0.4,3.4
		c0.8,1,2.3,1.2,3.4,0.4l17.8-13.9c0.1-0.1,0.2-0.1,0.3,0l38.7,30.3v98.6h-9.8v-21.6c0-6.8-5.5-12.3-12.3-12.3s-12.3,5.5-12.3,12.3
		v21.6h-9.3v-21.6c0-6.8-5.5-12.3-12.3-12.3s-12.3,5.5-12.3,12.3v21.6h-9.4V83.6l13.7-10.7c1-0.8,1.2-2.3,0.4-3.4
		c-0.8-1-2.3-1.2-3.4-0.4l-10.7,8.4v-7c4-11.8-4.5-24.8-16.8-26.1v-15c0-1.3-1.1-2.4-2.4-2.4s-2.4,1.1-2.4,2.4v15
		c-12.2,1.3-20.7,14.3-16.8,26.1v111.7h-2.1c-3.2,0.1-3.2,4.7,0,4.8C27.8,187,186.2,187,186.2,187L186.2,187z M165,49
		c9.6-0.1,17.1,9.2,15,18.5h-30C147.9,58.2,155.4,48.9,165,49z M49.1,49c9.6-0.1,17.1,9.2,15,18.5h-30C32,58.2,39.5,48.9,49.1,49z
		 M38.8,182.2h-4.1V72.3h28.8v109.9H38.8z M82.4,182.2v-21.6c0-4.1,3.4-7.5,7.5-7.5c4.1,0,7.5,3.4,7.5,7.5v21.6H82.4z M116.3,182.2
		v-21.6c0-4.1,3.4-7.5,7.5-7.5c4.1,0,7.5,3.4,7.5,7.5v21.6H116.3z"/>
	<path class="st0" d="M83.8,119.6c0.4,0.7,1.2,1.2,2.1,1.2h12.7l6.3,10.8c0.4,0.7,1.2,1.2,2.1,1.2s1.6-0.5,2.1-1.2l6.3-10.8H128
		c0.9,0,1.6-0.5,2.1-1.2c0.4-0.7,0.4-1.7,0-2.4l-6.4-11l6.4-11c0.4-0.7,0.4-1.7,0-2.4c-0.4-0.7-1.2-1.2-2.1-1.2h-12.7L109,80.7
		c-0.4-0.7-1.2-1.2-2.1-1.2s-1.6,0.5-2.1,1.2l-6.3,10.8H85.9c-0.9,0-1.6,0.5-2.1,1.2s-0.4,1.7,0,2.4l6.4,11l-6.4,11
		C83.4,117.9,83.4,118.8,83.8,119.6z M107,125.6l-2.8-4.9h5.6L107,125.6z M101.4,116l-5.7-9.8l5.7-9.8h11.1l5.7,9.8l-5.7,9.8H101.4z
		 M123.9,116H118l2.9-5.1L123.9,116z M123.9,96.3l-2.9,5.1l-2.9-5.1H123.9z M107,86.7l2.8,4.9h-5.6L107,86.7z M90,96.3h5.8l-2.9,5.1
		L90,96.3z M92.9,110.9l2.9,5.1H90L92.9,110.9z"/>
	<path class="st0" d="M173.1,101.1c0-3.9-1.7-7.6-4.8-10.1l-1.7-1.4c-1.1-0.9-2.7-0.9-3.7,0l-1.6,1.4c-2.9,2.5-4.6,6.1-4.6,9.9v13.5
		c0,1.3,1.1,2.4,2.4,2.4h11.6c1.3,0,2.4-1.1,2.4-2.4L173.1,101.1z M168.4,112.2h-6.8V101c0-2.6,1.3-5,3.3-6.6
		c2.1,1.6,3.5,4.1,3.5,6.7C168.4,101.1,168.4,112.2,168.4,112.2L168.4,112.2z"/>
	<path class="st0" d="M168.4,138.7l-1.7-1.4c-1.1-0.9-2.7-0.9-3.7,0l-1.6,1.4c-2.9,2.5-4.6,6.1-4.6,9.9v13.5c0,1.3,1.1,2.4,2.4,2.4
		h11.6c1.3,0,2.4-1.1,2.4-2.4v-13.4C173.1,144.8,171.4,141.2,168.4,138.7L168.4,138.7z M168.4,159.7h-6.8v-11.1c0-2.6,1.3-5,3.3-6.6
		c2.1,1.6,3.5,4.1,3.5,6.7L168.4,159.7z"/>
	<path class="st0" d="M52.5,91.1l-1.7-1.4c-1.1-0.9-2.7-0.9-3.7,0l-1.6,1.4c-2.9,2.5-4.6,6.1-4.6,9.9v13.5c0,1.3,1.1,2.4,2.4,2.4
		h11.6c1.3,0,2.4-1.1,2.4-2.4v-13.4C57.2,97.2,55.5,93.6,52.5,91.1L52.5,91.1z M52.4,112.2h-6.8V101c0-2.6,1.3-5,3.3-6.6
		c2.1,1.6,3.5,4.1,3.5,6.7C52.4,101.1,52.4,112.2,52.4,112.2z"/>
	<path class="st0" d="M52.5,138.7l-1.7-1.4c-1.1-0.9-2.7-0.9-3.7,0l-1.6,1.4c-2.9,2.5-4.6,6.1-4.6,9.9v13.5c0,1.3,1.1,2.4,2.4,2.4
		h11.6c1.3,0,2.4-1.1,2.4-2.4v-13.4C57.2,144.8,55.5,141.2,52.5,138.7z M52.4,159.7h-6.8v-11.1c0-2.6,1.3-5,3.3-6.6
		c2.1,1.6,3.5,4.1,3.5,6.7V159.7z"/>
</g>
</svg>
